alaburda.lt - Create a Date Dimension
…
  holidays <- purrr::map_df(unique(date_skeleton$calendar_year), ~get_holidays(country_code = country_code, year = .))

  out <- date_skeleton %>%
    dplyr::left_join(holidays, by = "date") %>%
    dplyr::mutate(is_workday = is_weekday*is.na(holiday_name))

  return(out)

}

date_dimension("2024-01-01","2024-05-01")

# A tibble: 122 × 15
   date       full_date_description day_of_week day_of_week_name
   <date>     <chr>                       <dbl> <ord>           
 1 2024-01-01 2024 m. sausis 01 d.            1 pirmadienis     
 2 2024-01-02 2024 m. sausis 02 d.            2 antradienis     
 3 2024-01-03 2024 m. sausis 03 d.            3 trečiadienis    
 4 2024-01-04 2024 m. sausis 04 d.            4 ketvirtadienis  
 5 2024-01-05 2024 m. sausis 05 d.            5 penktadienis    
 6 2024-01-06 2024 m. sausis 06 d.            6 šeštadienis     
 7 2024-01-07 2024 m. sausis 07 d.            7 sekmadienis     
 8 2024-01-08 2024 m. sausis 08 d.            1 pirmadienis     
 9 2024-01-09 2024 m. sausis 09 d.            2 antradienis     
10 2024-01-10 2024 m. sausis 10 d.            3 trečiadienis    
# ℹ 112 more rows
# ℹ 11 more variables: calendar_iso_week <dbl>, calendar_week <dbl>,
#   calendar_month <dbl>, calendar_month_name <ord>, calendar_quarter <int>,
#   calendar_quarter_name <chr>, calendar_year <dbl>, is_weekday <int>,
#   holiday_name_local <chr>, holiday_name <chr>, is_workday <int>
…
